<svg width="48" height="48" viewBox="0 0 48 48" fill="none" xmlns="http://www.w3.org/2000/svg">
<circle cx="24" cy="24" r="24" fill="#1081E8"/>
<path d="M24 31.1562C25.5533 31.1562 26.8125 29.8971 26.8125 28.3438C26.8125 26.7904 25.5533 25.5312 24 25.5312C22.4467 25.5312 21.1875 26.7904 21.1875 28.3438C21.1875 29.8971 22.4467 31.1562 24 31.1562Z" stroke="white" stroke-width="1.5" stroke-linecap="round" stroke-linejoin="round"/>
<path d="M19.9499 33.6874C20.3203 32.9288 20.8964 32.2895 21.6124 31.8423C22.3284 31.3951 23.1557 31.158 23.9999 31.158C24.8441 31.158 25.6714 31.3951 26.3874 31.8423C27.1034 32.2895 27.6795 32.9288 28.0499 33.6874" stroke="white" stroke-width="1.5" stroke-linecap="round" stroke-linejoin="round"/>
<path d="M29.3789 26.6985C30.4859 26.8578 31.4847 27.4494 32.1562 28.3438" stroke="white" stroke-width="1.5" stroke-linecap="round" stroke-linejoin="round"/>
<path d="M26.7493 23.436C26.9127 23.0951 27.1593 22.8008 27.4665 22.5803C27.7736 22.3599 28.1313 22.2204 28.5066 22.1747C28.8819 22.129 29.2627 22.1786 29.6137 22.319C29.9648 22.4594 30.2748 22.6859 30.5152 22.9777C30.7555 23.2695 30.9185 23.6172 30.989 23.9887C31.0595 24.3601 31.0352 24.7433 30.9185 25.1029C30.8018 25.4625 30.5963 25.7869 30.3211 26.0461C30.0459 26.3053 29.7098 26.491 29.3439 26.586" stroke="white" stroke-width="1.5" stroke-linecap="round" stroke-linejoin="round"/>
<path d="M18.6561 26.586C18.2902 26.491 17.9541 26.3053 17.6788 26.0461C17.4036 25.7869 17.1982 25.4625 17.0814 25.1029C16.9647 24.7433 16.9405 24.3601 17.011 23.9887C17.0814 23.6172 17.2444 23.2695 17.4848 22.9777C17.7251 22.6859 18.0351 22.4594 18.3862 22.319C18.7372 22.1786 19.118 22.129 19.4933 22.1747C19.8686 22.2204 20.2263 22.3599 20.5335 22.5803C20.8406 22.8008 21.0873 23.0951 21.2506 23.436" stroke="white" stroke-width="1.5" stroke-linecap="round" stroke-linejoin="round"/>
<path d="M15.8438 28.3438C16.5153 27.4494 17.5141 26.8578 18.6211 26.6985" stroke="white" stroke-width="1.5" stroke-linecap="round" stroke-linejoin="round"/>
<path d="M20.0333 14.7571C19.4727 14.7562 18.9354 14.9878 18.5369 15.4002C18.1385 15.8124 17.9104 16.3722 17.9003 16.9586C17.8903 17.5451 18.099 18.1131 18.4828 18.5402C18.8619 18.9618 19.382 19.2127 19.934 19.2389V20V20.1165L20.0492 20.0988L20.034 20L20.0492 20.0988L20.0493 20.0988L20.0493 20.0988L20.0496 20.0988L20.0506 20.0986L20.054 20.0981L20.0666 20.096C20.0775 20.0941 20.0934 20.0913 20.1139 20.0874C20.1548 20.0797 20.214 20.0678 20.2878 20.0507C20.4354 20.0167 20.6419 19.9622 20.879 19.8802L20.879 19.8802C21.8466 19.5455 23.3832 18.7314 23.3832 16.9284C23.3832 16.3543 23.1671 15.8026 22.7808 15.395C22.3944 14.9873 21.8692 14.7571 21.3203 14.7571H20.0333ZM20.0333 14.7571C20.0333 14.7571 20.0333 14.7571 20.0334 14.7571L20.0332 14.8571V14.7571H20.0333ZM28.157 19.5714L28.1424 19.6704L28.257 19.6873V19.5714V18.3857H28.9693C29.5362 18.3857 30.0787 18.148 30.4778 17.7269C30.8767 17.3059 31.1 16.736 31.1 16.1429C31.1 15.5497 30.8767 14.9798 30.4778 14.5588C30.0787 14.1377 29.5362 13.9 28.9693 13.9H26.6282C26.0359 13.9 25.469 14.1483 25.0519 14.5885C24.635 15.0284 24.4016 15.624 24.4016 16.244C24.4016 17.2472 24.8607 17.9702 25.4539 18.4824C26.0446 18.9925 26.7698 19.2956 27.3146 19.4675C27.5542 19.5432 27.7603 19.5937 27.9068 19.6255C27.9801 19.6413 28.0385 19.6525 28.0788 19.6597C28.099 19.6633 28.1147 19.6659 28.1254 19.6677L28.1377 19.6696L28.141 19.6702L28.1419 19.6703L28.1422 19.6703L28.1423 19.6703L28.1423 19.6704L28.157 19.5714ZM27.3447 17.3286H27.2447V17.4286V18.3279C27.0728 18.2607 26.9045 18.1839 26.7403 18.0978C25.9509 17.6803 25.4139 17.1014 25.4139 16.244C25.4139 15.901 25.5431 15.5731 25.7715 15.3321C25.9997 15.0913 26.308 14.9571 26.6282 14.9571H28.9693C29.2641 14.9571 29.548 15.0807 29.7582 15.3025C29.9686 15.5245 30.0877 15.8267 30.0877 16.1429C30.0877 16.459 29.9686 16.7612 29.7582 16.9832C29.548 17.205 29.2641 17.3286 28.9693 17.3286H27.3447ZM20.9463 18.3161V18.2199L20.8501 18.2162L19.9931 18.1836L19.9931 18.1836L19.9916 18.1836C19.6978 18.1769 19.4173 18.0476 19.2119 17.8221C19.0063 17.5964 18.893 17.2929 18.8983 16.9778C18.9037 16.6627 19.0271 16.3638 19.2401 16.1461C19.4529 15.9286 19.7375 15.8099 20.0313 15.8143L20.0313 15.8143H20.0328H21.3199H21.3199C21.4571 15.8142 21.5932 15.8427 21.7203 15.8982C21.8474 15.9538 21.9633 16.0353 22.0612 16.1385C22.159 16.2418 22.2369 16.3646 22.2902 16.5002C22.3434 16.6358 22.3709 16.7814 22.3709 16.9284C22.3709 17.6983 21.9115 18.2087 21.2351 18.5808L21.2351 18.5808C21.1391 18.6337 21.0421 18.6814 20.9463 18.7243V18.3161Z" fill="white" stroke="white" stroke-width="0.2"/>
</svg>
